^C:\USERS\OWNER\DOWNLOADS\DEBUGWORKSHOP\DEBUGWORKSHOP\IMAGESANDWORDS\IMAGES.CPP
C:\USERS\OWNER\DOWNLOADS\DEBUGWORKSHOP\DEBUGWORKSHOP\IMAGESANDWORDS\DEBUG\VC142.PDB
C:\USERS\OWNER\DOWNLOADS\DEBUGWORKSHOP\DEBUGWORKSHOP\IMAGESANDWORDS\DEBUG\VC142.IDB
C:\USERS\OWNER\DOWNLOADS\DEBUGWORKSHOP\DEBUGWORKSHOP\IMAGESANDWORDS\DEBUG\IMAGES.OBJ
