^C:\USERS\OWNER\DOWNLOADS\DEBUGWORKSHOP\DEBUGWORKSHOP\MYPOINTEXACTLY\DEBUG\MAIN.OBJ|C:\USERS\OWNER\DOWNLOADS\DEBUGWORKSHOP\DEBUGWORKSHOP\MYPOINTEXACTLY\DEBUG\POINT.OBJ
C:\USERS\OWNER\DOWNLOADS\DEBUGWORKSHOP\DEBUGWORKSHOP\DEBUG\MYPOINTEXACTLY.EXE
C:\USERS\OWNER\DOWNLOADS\DEBUGWORKSHOP\DEBUGWORKSHOP\DEBUG\MYPOINTEXACTLY.ILK
C:\USERS\OWNER\DOWNLOADS\DEBUGWORKSHOP\DEBUGWORKSHOP\DEBUG\MYPOINTEXACTLY.PDB
