^C:\USERS\OWNER\DOWNLOADS\DEBUGWORKSHOP\DEBUGWORKSHOP\SAFEANDSOUND\PART1.CPP|C:\USERS\OWNER\DOWNLOADS\DEBUGWORKSHOP\DEBUGWORKSHOP\SAFEANDSOUND\PART2.CPP|C:\USERS\OWNER\DOWNLOADS\DEBUGWORKSHOP\DEBUGWORKSHOP\SAFEANDSOUND\SAFEANDSOUND.CPP
C:\USERS\OWNER\DOWNLOADS\DEBUGWORKSHOP\DEBUGWORKSHOP\SAFEANDSOUND\DEBUG\VC142.PDB
C:\USERS\OWNER\DOWNLOADS\DEBUGWORKSHOP\DEBUGWORKSHOP\SAFEANDSOUND\DEBUG\VC142.IDB
C:\USERS\OWNER\DOWNLOADS\DEBUGWORKSHOP\DEBUGWORKSHOP\SAFEANDSOUND\DEBUG\SAFEANDSOUND.OBJ
C:\USERS\OWNER\DOWNLOADS\DEBUGWORKSHOP\DEBUGWORKSHOP\SAFEANDSOUND\DEBUG\PART2.OBJ
C:\USERS\OWNER\DOWNLOADS\DEBUGWORKSHOP\DEBUGWORKSHOP\SAFEANDSOUND\DEBUG\PART1.OBJ
^C:\USERS\OWNER\DOWNLOADS\DEBUGWORKSHOP\DEBUGWORKSHOP\SAFEANDSOUND\PART1.CPP|C:\USERS\OWNER\DOWNLOADS\DEBUGWORKSHOP\DEBUGWORKSHOP\SAFEANDSOUND\SAFEANDSOUND.CPP
C:\USERS\OWNER\DOWNLOADS\DEBUGWORKSHOP\DEBUGWORKSHOP\SAFEANDSOUND\DEBUG\VC142.PDB
C:\USERS\OWNER\DOWNLOADS\DEBUGWORKSHOP\DEBUGWORKSHOP\SAFEANDSOUND\DEBUG\VC142.IDB
C:\USERS\OWNER\DOWNLOADS\DEBUGWORKSHOP\DEBUGWORKSHOP\SAFEANDSOUND\DEBUG\PART1.OBJ
C:\USERS\OWNER\DOWNLOADS\DEBUGWORKSHOP\DEBUGWORKSHOP\SAFEANDSOUND\DEBUG\SAFEANDSOUND.OBJ
^C:\USERS\OWNER\DOWNLOADS\DEBUGWORKSHOP\DEBUGWORKSHOP\SAFEANDSOUND\SAFEANDSOUND.CPP
C:\USERS\OWNER\DOWNLOADS\DEBUGWORKSHOP\DEBUGWORKSHOP\SAFEANDSOUND\DEBUG\VC142.PDB
^C:\USERS\OWNER\DOWNLOADS\DEBUGWORKSHOP\DEBUGWORKSHOP\SAFEANDSOUND\PART1.CPP
C:\USERS\OWNER\DOWNLOADS\DEBUGWORKSHOP\DEBUGWORKSHOP\SAFEANDSOUND\DEBUG\VC142.PDB
^C:\USERS\OWNER\DOWNLOADS\DEBUGWORKSHOP\DEBUGWORKSHOP\SAFEANDSOUND\PART2.CPP
C:\USERS\OWNER\DOWNLOADS\DEBUGWORKSHOP\DEBUGWORKSHOP\SAFEANDSOUND\DEBUG\VC142.PDB
C:\USERS\OWNER\DOWNLOADS\DEBUGWORKSHOP\DEBUGWORKSHOP\SAFEANDSOUND\DEBUG\VC142.IDB
C:\USERS\OWNER\DOWNLOADS\DEBUGWORKSHOP\DEBUGWORKSHOP\SAFEANDSOUND\DEBUG\PART2.OBJ
