^C:\USERS\OWNER\DOWNLOADS\DEBUGWORKSHOP\DEBUGWORKSHOP\SAFEANDSOUND\DEBUG\PART1.OBJ|C:\USERS\OWNER\DOWNLOADS\DEBUGWORKSHOP\DEBUGWORKSHOP\SAFEANDSOUND\DEBUG\PART2.OBJ|C:\USERS\OWNER\DOWNLOADS\DEBUGWORKSHOP\DEBUGWORKSHOP\SAFEANDSOUND\DEBUG\SAFEANDSOUND.OBJ
/OUT:"C:\USERS\OWNER\DOWNLOADS\DEBUGWORKSHOP\DEBUGWORKSHOP\DEBUG\SAFEANDSOUND.EXE" /INCREMENTAL /NOLOGO KERNEL32.LIB USER32.LIB GDI32.LIB WINSPOOL.LIB COMDLG32.LIB ADVAPI32.LIB SHELL32.LIB OLE32.LIB OLEAUT32.LIB UUID.LIB ODBC32.LIB ODBCCP32.LIB /MANIFEST /MANIFESTUAC:"level='asInvoker' uiAccess='false'" /manifest:embed /DEBUG:FASTLINK /PDB:"C:\USERS\OWNER\DOWNLOADS\DEBUGWORKSHOP\DEBUGWORKSHOP\DEBUG\SAFEANDSOUND.PDB" /SUBSYSTEM:CONSOLE /TLBID:1 /DYNAMICBASE /NXCOMPAT /IMPLIB:"C:\USERS\OWNER\DOWNLOADS\DEBUGWORKSHOP\DEBUGWORKSHOP\DEBUG\SAFEANDSOUND.LIB" /MACHINE:X86 DEBUG\PART1.OBJ
DEBUG\PART2.OBJ
DEBUG\SAFEANDSOUND.OBJ
